{
	"uads" : [
				{
					"username" : "anon",
					"resourceAccess" : {
						"queryAccessAllowed" : true,
						"seriesAccessAllowed" : true,
						"labelsAccessAllowed" : true,
						"labelValuesAccessAllowed" : true,
						"targetsAccessAllowed" : true,
						"rulesAccessAllowed" : true,
						"alertsAccessAllowed" : true,
						"targetMetaDataAccessAllowed" : true,
						"metaDataAccessAllowed" : true
					}
				}
			]
}